<svg width="27" height="27" viewBox="0 0 27 27" fill="none" xmlns="http://www.w3.org/2000/svg">
<g filter="url(#filter0_d_39_124)">
<path d="M6.90536 20.7614H3.16427V8.71373H6.90536V20.7614ZM5.03281 7.07032C3.83653 7.07032 2.86621 6.07944 2.86621 4.88313C2.86621 4.3085 3.09448 3.75741 3.50079 3.35109C3.90711 2.94476 4.45819 2.71649 5.03281 2.71649C5.60742 2.71649 6.1585 2.94476 6.56482 3.35109C6.97113 3.75741 7.1994 4.3085 7.1994 4.88313C7.1994 6.07944 6.22868 7.07032 5.03281 7.07032ZM20.9071 20.7614H17.174V14.8967C17.174 13.499 17.1458 11.7065 15.229 11.7065C13.2839 11.7065 12.9858 13.225 12.9858 14.796V20.7614H9.24878V8.71373H12.8368V10.3571H12.8892C13.3886 9.41057 14.6087 8.41163 16.4289 8.41163C20.2151 8.41163 20.9111 10.9049 20.9111 14.1434V20.7614H20.9071Z" fill="white"/>
</g>
<defs>
<filter id="filter0_d_39_124" x="0.866211" y="0.716492" width="26.0449" height="26.0449" filterUnits="userSpaceOnUse" color-interpolation-filters="sRGB">
<feFlood flood-opacity="0" result="BackgroundImageFix"/>
<feColorMatrix in="SourceAlpha" type="matrix" values="0 0 0 0 0 0 0 0 0 0 0 0 0 0 0 0 0 0 127 0" result="hardAlpha"/>
<feOffset dx="2" dy="2"/>
<feGaussianBlur stdDeviation="2"/>
<feColorMatrix type="matrix" values="0 0 0 0 0 0 0 0 0 0 0 0 0 0 0 0 0 0 0.25 0"/>
<feBlend mode="normal" in2="BackgroundImageFix" result="effect1_dropShadow_39_124"/>
<feBlend mode="normal" in="SourceGraphic" in2="effect1_dropShadow_39_124" result="shape"/>
</filter>
</defs>
</svg>
